{
  "projectId": "uj3qj2",
  
  "env": {
    "url": "https://www.rrparkon.com/"
  },



  "reporter": "../node_modules/mochawesome/src/mochawesome.js",
    "reporterOptions": {
      "quite": true,
      "reportDir": "cypress/reports/mocha",
        "overwrite": false,
        "html": false,
        "json": true,
        "screenshotOnRunFailure": true

    }

  
 
 }


